[

{
  "_embedded" : {
    "tripDatas" : [ {
      "driverId" : 1,
      "vehicleId" : 1,
      "timeStamp" : "06/02/2020 12:30:15",
      "speed" : 33.528,
      "driverless" : false,
      "_links" : {
        "self" : {
          "href" : "http://172.20.10.8:9081/tripDatas/1"
        },
        "tripData" : {
          "href" : "http://172.20.10.8:9081/tripDatas/1"
        }
      }
    }, {
      "driverId" : 1,
      "vehicleId" : 1,
      "timeStamp" : "06/02/2020 12:30:30",
      "speed" : 38.528,
      "driverless" : false,
      "_links" : {
        "self" : {
          "href" : "http://172.20.10.8:9081/tripDatas/2"
        },
        "tripData" : {
          "href" : "http://172.20.10.8:9081/tripDatas/2"
        }
      }
    }, {
      "driverId" : 1,
      "vehicleId" : 1,
      "timeStamp" : "06/02/2020 12:30:45",
      "speed" : 39.528,
      "driverless" : false,
      "_links" : {
        "self" : {
          "href" : "http://172.20.10.8:9081/tripDatas/3"
        },
        "tripData" : {
          "href" : "http://172.20.10.8:9081/tripDatas/3"
        }
      }
    }, {
      "driverId" : 1,
      "vehicleId" : 1,
      "timeStamp" : "06/02/2020 12:31:00",
      "speed" : 33.528,
      "driverless" : false,
      "_links" : {
        "self" : {
          "href" : "http://172.20.10.8:9081/tripDatas/4"
        },
        "tripData" : {
          "href" : "http://172.20.10.8:9081/tripDatas/4"
        }
      }
    }, {
      "driverId" : 1,
      "vehicleId" : 1,
      "timeStamp" : "06/02/2020 12:31:15",
      "speed" : 33.528,
      "driverless" : false,
      "_links" : {
        "self" : {
          "href" : "http://172.20.10.8:9081/tripDatas/5"
        },
        "tripData" : {
          "href" : "http://172.20.10.8:9081/tripDatas/5"
        }
      }
    }, {
      "driverId" : 1,
      "vehicleId" : 1,
      "timeStamp" : "06/02/2020 12:31:30",
      "speed" : 33.528,
      "driverless" : false,
      "_links" : {
        "self" : {
          "href" : "http://172.20.10.8:9081/tripDatas/6"
        },
        "tripData" : {
          "href" : "http://172.20.10.8:9081/tripDatas/6"
        }
      }
    }, {
      "driverId" : 1,
      "vehicleId" : 1,
      "timeStamp" : "06/02/2020 12:31:45",
      "speed" : 33.528,
      "driverless" : false,
      "_links" : {
        "self" : {
          "href" : "http://172.20.10.8:9081/tripDatas/7"
        },
        "tripData" : {
          "href" : "http://172.20.10.8:9081/tripDatas/7"
        }
      }
    }, {
      "driverId" : 1,
      "vehicleId" : 1,
      "timeStamp" : "06/02/2020 12:32:00",
      "speed" : 33.528,
      "driverless" : false,
      "_links" : {
        "self" : {
          "href" : "http://172.20.10.8:9081/tripDatas/8"
        },
        "tripData" : {
          "href" : "http://172.20.10.8:9081/tripDatas/8"
        }
      }
    }, {
      "driverId" : 1,
      "vehicleId" : 1,
      "timeStamp" : "06/02/2020 12:32:15",
      "speed" : 33.528,
      "driverless" : false,
      "_links" : {
        "self" : {
          "href" : "http://172.20.10.8:9081/tripDatas/9"
        },
        "tripData" : {
          "href" : "http://172.20.10.8:9081/tripDatas/9"
        }
      }
    }, {
      "driverId" : 1,
      "vehicleId" : 1,
      "timeStamp" : "06/02/2020 12:32:30",
      "speed" : 33.528,
      "driverless" : false,
      "_links" : {
        "self" : {
          "href" : "http://172.20.10.8:9081/tripDatas/10"
        },
        "tripData" : {
          "href" : "http://172.20.10.8:9081/tripDatas/10"
        }
      }
    }, {
      "driverId" : 1,
      "vehicleId" : 1,
      "timeStamp" : "06/02/2020 12:32:45",
      "speed" : 33.528,
      "driverless" : false,
      "_links" : {
        "self" : {
          "href" : "http://172.20.10.8:9081/tripDatas/11"
        },
        "tripData" : {
          "href" : "http://172.20.10.8:9081/tripDatas/11"
        }
      }
    }, {
      "driverId" : 1,
      "vehicleId" : 1,
      "timeStamp" : "06/02/2020 12:33:00",
      "speed" : 33.528,
      "driverless" : false,
      "_links" : {
        "self" : {
          "href" : "http://172.20.10.8:9081/tripDatas/12"
        },
        "tripData" : {
          "href" : "http://172.20.10.8:9081/tripDatas/12"
        }
      }
    }, {
      "driverId" : 1,
      "vehicleId" : 1,
      "timeStamp" : "06/02/2020 12:33:15",
      "speed" : 33.528,
      "driverless" : false,
      "_links" : {
        "self" : {
          "href" : "http://172.20.10.8:9081/tripDatas/13"
        },
        "tripData" : {
          "href" : "http://172.20.10.8:9081/tripDatas/13"
        }
      }
    }, {
      "driverId" : 1,
      "vehicleId" : 1,
      "timeStamp" : "06/02/2020 12:33:30",
      "speed" : 33.528,
      "driverless" : false,
      "_links" : {
        "self" : {
          "href" : "http://172.20.10.8:9081/tripDatas/14"
        },
        "tripData" : {
          "href" : "http://172.20.10.8:9081/tripDatas/14"
        }
      }
    }, {
      "driverId" : 1,
      "vehicleId" : 1,
      "timeStamp" : "06/02/2020 12:33:45",
      "speed" : 0.0,
      "driverless" : false,
      "_links" : {
        "self" : {
          "href" : "http://172.20.10.8:9081/tripDatas/15"
        },
        "tripData" : {
          "href" : "http://172.20.10.8:9081/tripDatas/15"
        }
      }
    }, {
      "driverId" : 1,
      "vehicleId" : 1,
      "timeStamp" : "06/02/2020 12:34:00",
      "speed" : 0.0,
      "driverless" : false,
      "_links" : {
        "self" : {
          "href" : "http://172.20.10.8:9081/tripDatas/16"
        },
        "tripData" : {
          "href" : "http://172.20.10.8:9081/tripDatas/16"
        }
      }
    }, {
      "driverId" : 1,
      "vehicleId" : 1,
      "timeStamp" : "06/02/2020 12:34:15",
      "speed" : 0.0,
      "driverless" : false,
      "_links" : {
        "self" : {
          "href" : "http://172.20.10.8:9081/tripDatas/17"
        },
        "tripData" : {
          "href" : "http://172.20.10.8:9081/tripDatas/17"
        }
      }
    }, {
      "driverId" : 1,
      "vehicleId" : 1,
      "timeStamp" : "06/02/2020 12:34:30",
      "speed" : 0.0,
      "driverless" : false,
      "_links" : {
        "self" : {
          "href" : "http://172.20.10.8:9081/tripDatas/18"
        },
        "tripData" : {
          "href" : "http://172.20.10.8:9081/tripDatas/18"
        }
      }
    }, {
      "driverId" : 1,
      "vehicleId" : 1,
      "timeStamp" : "06/02/2020 12:34:45",
      "speed" : 33.528,
      "driverless" : false,
      "_links" : {
        "self" : {
          "href" : "http://172.20.10.8:9081/tripDatas/19"
        },
        "tripData" : {
          "href" : "http://172.20.10.8:9081/tripDatas/19"
        }
      }
    }, {
      "driverId" : 1,
      "vehicleId" : 1,
      "timeStamp" : "06/02/2020 12:35:00",
      "speed" : 33.528,
      "driverless" : false,
      "_links" : {
        "self" : {
          "href" : "http://172.20.10.8:9081/tripDatas/20"
        },
        "tripData" : {
          "href" : "http://172.20.10.8:9081/tripDatas/20"
        }
      }
    } ]
  },
  "_links" : {
    "first" : {
      "href" : "http://172.20.10.8:9081/tripDatas?page=0&size=20"
    },
    "self" : {
      "href" : "http://172.20.10.8:9081/tripDatas"
    },
    "next" : {
      "href" : "http://172.20.10.8:9081/tripDatas?page=1&size=20"
    },
    "last" : {
      "href" : "http://172.20.10.8:9081/tripDatas?page=203&size=20"
    },
    "profile" : {
      "href" : "http://172.20.10.8:9081/profile/tripDatas"
    },
    "search" : {
      "href" : "http://172.20.10.8:9081/tripDatas/search"
    }
  },
  "page" : {
    "size" : 20,
    "totalElements" : 4080,
    "totalPages" : 204,
    "number" : 0
  }
}
]